{"slides": [
    {
        "elements": [
            {
                "action": {
                    "library": "H5P.Introduction 1.0",
                    "params": {
                        "title": "Case Example 1: Initial Consultation and Needs Determination",
                        "subTitle": "Welcome to Part One of Case Example 1: Initial Consultation and Needs Determination"
                    }
                },
                "x": 0,
                "y": 0,
                "width": 100,
                "height": 100,
                "alwaysDisplayComments": false,
                "backgroundOpacity": 50,
                "displayAsButton": false,
                "solution": ""
            }
        ]
    },
    {
        "elements": [
            {
                "action": {
                    "library": "H5P.Conversation 1.0",
                    "params": {
                        "singleAnswer": true,
                        "singlePoint": true,
                        "randomAnswers": false,
                        "patientRelationship": "married",
                        "conversationAnswers": [
                            {
                                "correct": false,
                                "communication": "poor",
                                "expertise": "poor",
                                "text": "<p>Based on your medical chart, I dont see any reason why that should be an issue for you. I can write you a prescription today.</p>\n",
                                "speechBuuble": "<p>Great, that was easy. But, Im not sure I fully understand how to take the pill.</p>\n",
                                "patientSays": "<p>Okay. But I still have some questions.</p>\n",
                                "chosenFeedback": "<p>Though youre giving the client what she asked for, youre missing quite a lot of her medical information. Do you know enough about this client to help her make the best decision regarding her contraceptive options? Click on the remaining answer choices to explore the other common responses at this stage.</p>\n",
                                "notChosenFeedback": ""
                            },
                            {
                                "correct": false,
                                "communication": "fair",
                                "expertise": "good",
                                "text": "<p>Can you remember to take the pill regularly? Have you thought about an IUD instead of the pill? It is an easier and more reliable method of contraception.</p>\n",
                                "speechBuuble": "<p>My aunt told me that she had heavy bleeding and had to go to hospital to have her IUD taken out or My aunt told me that these coils can become lost inside the womans tummy. I dont know if this doctor has my best interests in mind.</p>\n",
                                "patientSays": "<p>An IUD? An IUD makes me a little nervous.</p>\n",
                                "chosenFeedback": "<p>Do not let your initial impression of the client make you judgemental. It can make your client defensive. You should refrain from overselling one approach to contraception. Always keep in mind that the choice is ultimately up to the client. Your role is to listen, learn, and provide information, not make the choice for your client. Click on the remaining answer choices to explore the other common responses at this stage.</p>\n",
                                "notChosenFeedback": ""
                            },
                            {
                                "correct": true,
                                "communication": "excellent",
                                "expertise": "good",
                                "text": "<p>Is there a particular reason you want to start the pill now?</p>\n",
                                "speechBuuble": "<p>Ive been thinking about this for a while. Im glad I finally found the time for a consultation.</p>\n",
                                "patientSays": "<p>Id like to start taking the pill.</p>\n",
                                "chosenFeedback": "<p>This is the best choice based on the information you have so far. The reasons women present for contraception are varied and will influence the advice given. Understanding Kijais motivation for why she wants contraception now and the method she first requests will help you make a more informed suggestion for her. Click on the remaining answer choices to explore the other common responses at this stage before proceeding.</p>\n",
                                "notChosenFeedback": ""
                            },
                            {
                                "correct": false,
                                "communication": "poor",
                                "expertise": "poor",
                                "text": "<p>Are you married or in a monogamous relationship? If not, it might be better for you to use condoms as well as the pill.</p>\n",
                                "speechBuuble": "<p>All my friends take the pill and it works for them no matter their relationship status. What is this doctor suggesting? He doesnt even know me.</p>\n",
                                "patientSays": "<p>Oh, ok well, I am in a monogamous relationship.</p>\n",
                                "chosenFeedback": "<p>Though asking about Kijais relationship status is okay, you should avoid advising one contraceptive over another until you have all the information you need to make an informed and thoughtful suggestion. Additionally, this question has been asked before any trust has been built up with the client and may appear judgemental this early in the consultation. Click on the remaining answer choices to explore the other common responses at this stage.</p>\n",
                                "notChosenFeedback": ""
                            }
                        ],
                        "UI": {
                            "showSolutionButton": "Show solution",
                            "tryAgainButton": "Retry",
                            "correctText": "Correct!",
                            "almostText": "Almost!",
                            "wrongText": "Wrong"
                        },
                        "tryAgain": true,
                        "showSolutionsRequiresInput": true,
                        "conversationQuestion": "<p>Id like to start taking the pill.</p>\n",
                        "patientName": "<p>Kijai</p>\n",
                        "patientAge": "<p>28</p>\n",
                        "examinationResults": "<p>None</p>\n",
                        "patientDetails": "<p>Kijai is part of a community where women are somewhat free to make their own medical decisions without the intervention of their husbands or family members. Women in her culture are mostly independent. They are respected members of the communities they live in, and many women continue to work outside the home after they have children. Women from older generations still hold some misconceptions about contraceptive methods that they pass on to the younger generations.</p>\n",
                        "notes": "<p style=\"margin-bottom: 0cm; line-height: 14.949999809265137px;\">Kijai has already filled out some basic information about herself while she was waiting for the consultation to begin, but youll notice that there are still some blanks in Kijais medical chart.</p>\n\n<p style=\"margin-bottom: 0cm; line-height: 14.949999809265137px;\">In working with her today, part of your goal will be to fill in those blanks. As you move through your discussion with Kijai and gain more information about her, this chart will automatically update with the information you have learned.</p>\n",
                        "patientImage": {
                            "path": "images/patientImage-53fd8964478f1.jpg",
                            "mime": "image/jpeg",
                            "copyright": {
                                "license": "U"
                            },
                            "width": 203,
                            "height": 199
                        }
                    }
                },
                "x": 0,
                "y": 0,
                "width": 40,
                "height": 40,
                "alwaysDisplayComments": false,
                "backgroundOpacity": 0,
                "displayAsButton": false,
                "solution": ""
            }
        ]
    },
    {
        "elements": [
            {
                "action": {
                    "library": "H5P.ReviewQuestion 1.0",
                    "params": {
                        "singleAnswer": true,
                        "singlePoint": true,
                        "randomAnswers": false,
                        "answers": [
                            {
                                "correct": true,
                                "text": "<p style=\"margin-bottom: 0cm;\">ICGP: Contraception in GP</p>\n",
                                "resourceUrl": "<div>https://app.box.com/files/0/f/2174378982/1/f_18789816050</div>\n",
                                "notChosenFeedback": "",
                                "chosenFeedback": "<p style=\"margin-bottom: 0cm; line-height: 115%\">This resource supports the idea that it is important to understand the motivations of each client.</p>\n\n<p style=\"margin-bottom: 0cm; line-height: 115%\">It covers many of the skills youll be working with in this unit, including helpful consultative approaches, and what areas to address during a contraceptive choice consultation.</p>\n"
                            },
                            {
                                "correct": false,
                                "text": "<p style=\"margin-bottom: 0cm;\">FSRH Contraception: Method Specific Guidance</p>\n",
                                "resourceUrl": "<div>http://www.fsrh.org/pages/Clinical_Guidance_3.asp</div>\n",
                                "notChosenFeedback": "",
                                "chosenFeedback": "<p style=\"margin-bottom: 0cm; line-height: 115%\">This resource provides guidance on contraceptive methods for specific populations, including women over 40, contraception for young people, and postnatal sexual and reproductive&nbsp;health.</p>\n\n<p style=\"margin-bottom: 0cm; line-height: 115%\">This resource does not touch on the soft skills needed for effective communication, or information on what questions to ask in an initial contraceptive choice consultation.</p>\n"
                            },
                            {
                                "correct": false,
                                "text": "<p style=\"margin-bottom: 0cm;\">FPA Factsheets</p>\n",
                                "resourceUrl": "<div>http://www.fpa.org.uk/resources/factsheets</div>\n",
                                "notChosenFeedback": "",
                                "chosenFeedback": "<p style=\"margin-bottom: 0cm; line-height: 115%\">This resource provides factsheets on several different aspects of family planning from contraception and abortion, to STIs and laws governing sexual behaviour.However, this resource does not touch on the soft skills needed for effective communication, or information on what questions to ask in an initial non-emergency contraception consultation.</p>\n"
                            },
                            {
                                "correct": false,
                                "text": "<p style=\"margin-bottom: 0cm;\">British National Formulary</p>\n",
                                "resourceUrl": "<div>http://www.bnf.org/bnf/index.htm</div>\n",
                                "notChosenFeedback": "",
                                "chosenFeedback": "<p style=\"margin-bottom: 0cm;\">This resource provides information on the selection and clinical use of medicines. It may be helpful later when helping Kijai choose a particular contraceptive method, but this resource does not touch on the soft skills needed for effective&nbsp;communication, or information on what questions to ask in an initial contraceptive choice consultation.</p>\n"
                            }
                        ],
                        "UI": {
                            "showSolutionButton": "Show solution",
                            "tryAgainButton": "Retry",
                            "correctText": "Correct!",
                            "almostText": "Almost!",
                            "wrongText": "Wrong"
                        },
                        "tryAgain": true,
                        "showSolutionsRequiresInput": true,
                        "question": "<h3 style=\"margin: 0px 0px 0.5em; padding: 0px; border: 0px; font-size: 1.333em; vertical-align: baseline; clear: both; font-family: H5PDroidSans, sans-serif; font-weight: bold; line-height: 1.5em; color: rgb(50, 50, 50); font-style: normal; font-variant: normal; letter-spacing: normal; orphans: auto; text-align: left; text-indent: 0px; text-transform: none; white-space: normal; widows: auto; word-spacing: 0px; -webkit-text-stroke-width: 0px; background-color: rgb(255, 255, 255);\">Click each of the following resources.</h3>\n\n<p style=\"margin-bottom: 0cm; line-height: 115%\">Though all resources are meaningful to the contraceptive consultation, which reference best supports this response?</p>\n"
                    }
                },
                "x": 0,
                "y": 0,
                "width": 40,
                "height": 40,
                "alwaysDisplayComments": false,
                "backgroundOpacity": 0,
                "displayAsButton": false,
                "solution": ""
            }
        ]
    }
], "showSolutions": true, "l10n": {
    "goHome": "Go to first slide",
    "scrollLeft": "Hold to scroll left",
    "jumpToSlide": "Jump to slide",
    "scrollRight": "Hold to scroll right",
    "slide": "Slide",
    "yourScore": "Your Score",
    "maxScore": "Max Score",
    "goodScore": "Congratulations! You got @percent correct!",
    "okScore": "Nice effort! You got @percent correct!",
    "badScore": "You need to work more on this. You only got @percent correct...",
    "showSolutions": "Show solutions",
    "title": "Title",
    "author": "Author",
    "lisence": "Lisence",
    "license": "License",
    "exportAnswers": "Export text",
    "copyright": "Rights of use",
    "Total": "Total"
}}