{
    "title": "Lessons",
    "contentType": "question",
    "majorVersion": 1,
    "minorVersion": 0,
    "patchVersion": 47,
    "runnable": 1,
    "machineName": "H5P.Lessons",
    "author": "Amendor AS",
    "license": "cc-by-sa",
    "preloadedJs": [
        {
            "path": "js/lessons.js"
        }
    ],
    "preloadedCss": [
        {
            "path": "css/lessons.css"
        }
    ],
    "preloadedDependencies": [
        {
            "machineName": "FontAwesome",
            "majorVersion": 3,
            "minorVersion": 1
        },
        {
            "machineName": "EmbeddedJS",
            "majorVersion": 1,
            "minorVersion": 0
        },
        {
            "machineName": "H5P.JoubelUI",
            "majorVersion": 1,
            "minorVersion": 0
        }
    ]
}