    [
      {
        "name": "singleAnswer",
        "type": "boolean",
        "label": "Single answer",
        "description": "Enable to allow only single option answer.",
        "default": true
      },
      {
        "name": "randomAnswers",
        "type": "boolean",
        "label": "Randomize answers",
        "description": "Enable to randomize the order of questions on display.",
        "default": true
      },
      {
        "name": "answers",
        "type": "list",
        "label": "Available Lessons",
        "description": "The alternatives the user may choose from.",
        "entity": "option",
        "min": 1,
        "defaultNum": 2,
        "field": {
            "name": "answer",
            "type": "group",
            "label": "Lesson",
            "fields": [
                {
                    "name": "title",
                    "type": "text",
                    "widget": "html",
                    "label": "Title",
                    "tags": [
                        "strong",
                        "em",
                        "sub",
                        "sup",
                        "h2",
                        "h3",
                        "a"

                    ]
                },
                {
                    "name": "description",
                    "type": "text",
                    "widget": "html",
                    "label": "Description",
                    "tags": [
                        "strong",
                        "em",
                        "sub",
                        "sup",
                        "h2",
                        "h3",
                        "a"
                    ]
                },
                {
                    "name": "correct",
                    "type": "boolean",
                    "label": "Correct"
                }
            ]
        }
    }
]
